…
1.  Load the data

``` r
dat <- read.csv("activity.csv") 
```

1.  transform the data class into "tbl\_df"

``` r
dat <- dplyr::as_data_frame(dat)
print(dat)
```

    ## # A tibble: 17,568 x 3
    ##    steps date       interval
    ##    <int> <fct>         <int>
    ##  1    NA 2012-10-01        0
    ##  2    NA 2012-10-01        5
    ##  3    NA 2012-10-01       10
    ##  4    NA 2012-10-01       15
    ##  5    NA 2012-10-01       20
    ##  6    NA 2012-10-01       25
    ##  7    NA 2012-10-01       30
    ##  8    NA 2012-10-01       35
    ##  9    NA 2012-10-01       40
    ## 10    NA 2012-10-01       45
    ## # ... with 17,558 more rows

### What is mean total number of steps taken per day?

1.  Calculate the total number of steps taken per day

``` r
dat2 <- dat %>%
        dplyr::group_by(date) %>%
        dplyr::summarise(total_steps = sum(steps,na.rm=TRUE))
print(dat2)
```

    ## # A tibble: 61 x 2
    ##    date       total_steps
    ##    <fct>            <int>
    ##  1 2012-10-01           0
    ##  2 2012-10-02         126
    ##  3 2012-10-03       11352
    ##  4 2012-10-04       12116
    ##  5 2012-10-05       13294
    ##  6 2012-10-06       15420
    ##  7 2012-10-07       11015
    ##  8 2012-10-08           0
    ##  9 2012-10-09       12811
    ## 10 2012-10-10        9900
    ## # ... with 51 more rows
…
``` r
ave_par_day <- dat %>%
        dplyr::group_by(date) %>%
        dplyr::summarise(average_day = mean(steps,na.rm=TRUE)) 

#If average valu is "NaN", set the mean of the total number of steps across all day
ave_all_day <- mean(ave_par_day$average_day,na.rm=TRUE)
ave_par_day <- ave_par_day %>%
  dplyr::mutate(average_day = ifelse(is.na(average_day),ave_all_day,average_day)) %>%
  dplyr::mutate(weight = average_day/mean(average_day))
ave_par_day
```

    ## # A tibble: 61 x 3
    ##    date       average_day weight
    ##    <fct>            <dbl>  <dbl>
    ##  1 2012-10-01      37.4   1     
    ##  2 2012-10-02       0.438 0.0117
    ##  3 2012-10-03      39.4   1.05  
    ##  4 2012-10-04      42.1   1.13  
    ##  5 2012-10-05      46.2   1.23  
    ##  6 2012-10-06      53.5   1.43  
    ##  7 2012-10-07      38.2   1.02  
    ##  8 2012-10-08      37.4   1     
    ##  9 2012-10-09      44.5   1.19  
    ## 10 2012-10-10      34.4   0.920 
    ## # ... with 51 more rows

Second, calculate the average number of steps taken each interval

``` r
ave_par_interval <- dat %>%
        dplyr::group_by(interval) %>%
        dplyr::summarise(average_interval = mean(steps,na.rm=TRUE)) 
ave_par_interval
```

    ## # A tibble: 288 x 2
    ##    interval average_interval
    ##       <int>            <dbl>
    ##  1        0           1.72  
    ##  2        5           0.340 
    ##  3       10           0.132 
    ##  4       15           0.151 
    ##  5       20           0.0755
    ##  6       25           2.09  
    ##  7       30           0.528 
    ##  8       35           0.868 
    ##  9       40           0     
    ## 10       45           1.47  
    ## # ... with 278 more rows

Next, joining the average number of steps taken each day and each interval,and calculate the interpolation

``` r
interpolate_dat <- dat %>%
                   dplyr::inner_join(ave_par_day,by="date") %>% 
                   dplyr::inner_join(ave_par_interval,by="interval") %>% 
                   dplyr::mutate(fill = weight * average_interval) 
interpolate_dat
```

    ## # A tibble: 17,568 x 7
    ##    steps date       interval average_day weight average_interval   fill
    ##    <int> <fct>         <int>       <dbl>  <dbl>            <dbl>  <dbl>
    ##  1    NA 2012-10-01        0        37.4      1           1.72   1.72  
    ##  2    NA 2012-10-01        5        37.4      1           0.340  0.340 
    ##  3    NA 2012-10-01       10        37.4      1           0.132  0.132 
    ##  4    NA 2012-10-01       15        37.4      1           0.151  0.151 
    ##  5    NA 2012-10-01       20        37.4      1           0.0755 0.0755
    ##  6    NA 2012-10-01       25        37.4      1           2.09   2.09  
    ##  7    NA 2012-10-01       30        37.4      1           0.528  0.528 
    ##  8    NA 2012-10-01       35        37.4      1           0.868  0.868 
    ##  9    NA 2012-10-01       40        37.4      1           0      0     
    ## 10    NA 2012-10-01       45        37.4      1           1.47   1.47  
    ## # ... with 17,558 more rows

Finally, filling in all of the missing values

``` r
interpolate_dat <- interpolate_dat %>%        
   dplyr::mutate(interpolation = ifelse(is.na(steps),fill,steps)) %>%
   dplyr::select(-(average_day:fill))
interpolate_dat
```

    ## # A tibble: 17,568 x 4
    ##    steps date       interval interpolation
    ##    <int> <fct>         <int>         <dbl>
    ##  1    NA 2012-10-01        0        1.72  
    ##  2    NA 2012-10-01        5        0.340 
    ##  3    NA 2012-10-01       10        0.132 
    ##  4    NA 2012-10-01       15        0.151 
    ##  5    NA 2012-10-01       20        0.0755
    ##  6    NA 2012-10-01       25        2.09  
    ##  7    NA 2012-10-01       30        0.528 
    ##  8    NA 2012-10-01       35        0.868 
    ##  9    NA 2012-10-01       40        0     
    ## 10    NA 2012-10-01       45        1.47  
    ## # ... with 17,558 more rows

3.Create a new dataset that is equal to the original dataset but with the missing data filled in

``` r
interpolate_dat <- interpolate_dat %>%        
   dplyr::mutate(steps = interpolation) %>%
   dplyr::select(steps:interval)
interpolate_dat
```

    ## # A tibble: 17,568 x 3
    ##     steps date       interval
    ##     <dbl> <fct>         <int>
    ##  1 1.72   2012-10-01        0
    ##  2 0.340  2012-10-01        5
    ##  3 0.132  2012-10-01       10
    ##  4 0.151  2012-10-01       15
    ##  5 0.0755 2012-10-01       20
    ##  6 2.09   2012-10-01       25
    ##  7 0.528  2012-10-01       30
    ##  8 0.868  2012-10-01       35
    ##  9 0      2012-10-01       40
    ## 10 1.47   2012-10-01       45
    ## # ... with 17,558 more rows
…
### Are there differences in activity patterns between weekdays and weekends?

1.Create a new factor variable in the dataset with two levels – “weekday” and “weekend”

``` r
dat4 <- interpolate_dat %>%
  mutate(weekday = weekdays(lubridate::ymd(date),abbreviate=TRUE)) %>%
  mutate(weekend = factor(weekday,
   levels = c("Mon", "Tue", "Wed", "Thu", "Fri", "Sat", "Sun"),
   labels = c("weekday", "weekday", "weekday", "weekday", "weekday", "weekend", "weekend")))
dat4
```

    ## # A tibble: 17,568 x 5
    ##     steps date       interval weekday weekend
    ##     <dbl> <fct>         <int> <chr>   <fct>  
    ##  1 1.72   2012-10-01        0 Mon     weekday
    ##  2 0.340  2012-10-01        5 Mon     weekday
    ##  3 0.132  2012-10-01       10 Mon     weekday
    ##  4 0.151  2012-10-01       15 Mon     weekday
    ##  5 0.0755 2012-10-01       20 Mon     weekday
    ##  6 2.09   2012-10-01       25 Mon     weekday
    ##  7 0.528  2012-10-01       30 Mon     weekday
    ##  8 0.868  2012-10-01       35 Mon     weekday
    ##  9 0      2012-10-01       40 Mon     weekday
    ## 10 1.47   2012-10-01       45 Mon     weekday
    ## # ... with 17,558 more rows
…
